Lab5/cpu_tb.vcd
$date
	Wed Dec 13 16:27:56 2023
$end
$version
	Icarus Verilog
$end
$timescale
	1ps
$end
$scope module cpu_tb $end
$scope module cpu0 $end
$scope module cpu_regs $end
$var reg 32 ! \data[0] [31:0] $end
$upscope $end
$upscope $end
$upscope $end
$scope module cpu_tb $end
$scope module cpu0 $end
$scope module cpu_regs $end
$var reg 32 " \data[1] [31:0] $end
$upscope $end
$upscope $end
$upscope $end
$scope module cpu_tb $end
$scope module cpu0 $end
$scope module cpu_regs $end
$var reg 32 # \data[2] [31:0] $end
$upscope $end
$upscope $end
$upscope $end
$scope module cpu_tb $end
$scope module cpu0 $end
$scope module cpu_regs $end
$var reg 32 $ \data[3] [31:0] $end
$upscope $end
$upscope $end
$upscope $end
$scope module cpu_tb $end
$scope module cpu0 $end
$scope module cpu_regs $end
$var reg 32 % \data[4] [31:0] $end
$upscope $end
$upscope $end
$upscope $end
$scope module cpu_tb $end
$scope module cpu0 $end
$scope module cpu_regs $end
$var reg 32 & \data[5] [31:0] $end
$upscope $end
$upscope $end
$upscope $end
$scope module cpu_tb $end
$scope module cpu0 $end
$scope module cpu_regs $end
$var reg 32 ' \data[6] [31:0] $end
$upscope $end
$upscope $end
$upscope $end
$scope module cpu_tb $end
$scope module cpu0 $end
$scope module cpu_regs $end
$var reg 32 ( \data[7] [31:0] $end
$upscope $end
$upscope $end
$upscope $end
$scope module cpu_tb $end
$scope module cpu0 $end
$scope module cpu_regs $end
$var reg 32 ) \data[8] [31:0] $end
$upscope $end
$upscope $end
$upscope $end
$scope module cpu_tb $end
$scope module cpu0 $end
$scope module cpu_regs $end
$var reg 32 * \data[9] [31:0] $end
$upscope $end
$upscope $end
$upscope $end
$scope module cpu_tb $end
$scope module cpu0 $end
$scope module cpu_regs $end
$var reg 32 + \data[10] [31:0] $end
$upscope $end
$upscope $end
$upscope $end
$scope module cpu_tb $end
$scope module cpu0 $end
$scope module cpu_regs $end
$var reg 32 , \data[11] [31:0] $end
$upscope $end
$upscope $end
$upscope $end
$scope module cpu_tb $end
$scope module cpu0 $end
$scope module cpu_regs $end
$var reg 32 - \data[12] [31:0] $end
$upscope $end
$upscope $end
$upscope $end
$scope module cpu_tb $end
$scope module cpu0 $end
$scope module cpu_regs $end
$var reg 32 . \data[13] [31:0] $end
$upscope $end
$upscope $end
$upscope $end
$scope module cpu_tb $end
$scope module cpu0 $end
$scope module cpu_regs $end
$var reg 32 / \data[14] [31:0] $end
$upscope $end
$upscope $end
$upscope $end
$scope module cpu_tb $end
$scope module cpu0 $end
$scope module cpu_regs $end
$var reg 32 0 \data[15] [31:0] $end
$upscope $end
$upscope $end
$upscope $end
$scope module cpu_tb $end
$scope module cpu0 $end
$scope module cpu_regs $end
$var reg 32 1 \data[16] [31:0] $end
$upscope $end
$upscope $end
$upscope $end
$scope module cpu_tb $end
$scope module cpu0 $end
$scope module cpu_regs $end
$var reg 32 2 \data[17] [31:0] $end
$upscope $end
$upscope $end
$upscope $end
$scope module cpu_tb $end
$scope module cpu0 $end
$scope module cpu_regs $end
$var reg 32 3 \data[18] [31:0] $end
$upscope $end
$upscope $end
$upscope $end
$scope module cpu_tb $end
$scope module cpu0 $end
$scope module cpu_regs $end
$var reg 32 4 \data[19] [31:0] $end
$upscope $end
$upscope $end
$upscope $end
$scope module cpu_tb $end
$scope module cpu0 $end
$scope module cpu_regs $end
$var reg 32 5 \data[20] [31:0] $end
$upscope $end
$upscope $end
$upscope $end
$scope module cpu_tb $end
$scope module cpu0 $end
$scope module cpu_regs $end
$var reg 32 6 \data[21] [31:0] $end
$upscope $end
$upscope $end
$upscope $end
$scope module cpu_tb $end
$scope module cpu0 $end
$scope module cpu_regs $end
$var reg 32 7 \data[22] [31:0] $end
$upscope $end
$upscope $end
$upscope $end
$scope module cpu_tb $end
$scope module cpu0 $end
$scope module cpu_regs $end
$var reg 32 8 \data[23] [31:0] $end
$upscope $end
$upscope $end
$upscope $end
$scope module cpu_tb $end
$scope module cpu0 $end
$scope module cpu_regs $end
$var reg 32 9 \data[24] [31:0] $end
$upscope $end
$upscope $end
$upscope $end
$scope module cpu_tb $end
$scope module cpu0 $end
$scope module cpu_regs $end
$var reg 32 : \data[25] [31:0] $end
$upscope $end
$upscope $end
$upscope $end
$scope module cpu_tb $end
$scope module cpu0 $end
$scope module cpu_regs $end
$var reg 32 ; \data[26] [31:0] $end
$upscope $end
$upscope $end
$upscope $end
$scope module cpu_tb $end
$scope module cpu0 $end
$scope module cpu_regs $end
$var reg 32 < \data[27] [31:0] $end
$upscope $end
$upscope $end
$upscope $end
$scope module cpu_tb $end
$scope module cpu0 $end
$scope module cpu_regs $end
$var reg 32 = \data[28] [31:0] $end
$upscope $end
$upscope $end
$upscope $end
$scope module cpu_tb $end
$scope module cpu0 $end
$scope module cpu_regs $end
$var reg 32 > \data[29] [31:0] $end
$upscope $end
$upscope $end
$upscope $end
$scope module cpu_tb $end
$scope module cpu0 $end
$scope module cpu_regs $end
$var reg 32 ? \data[30] [31:0] $end
$upscope $end
$upscope $end
$upscope $end
$scope module cpu_tb $end
$scope module cpu0 $end
$scope module cpu_regs $end
$var reg 32 @ \data[31] [31:0] $end
$upscope $end
$upscope $end
$upscope $end
$scope module cpu_tb $end
$scope module cpu0 $end
$var wire 1 A clk $end
$var wire 1 B reset $end
$var wire 32 C wd [31:0] $end
$var wire 5 D wa [4:0] $end
$var wire 32 E signExtendedInstr [31:0] $end
$var wire 32 F rdB [31:0] $end
$var wire 32 G rdA [31:0] $end
$var wire 32 H memOut [31:0] $end
$var wire 32 I instr [31:0] $end
$var wire 1 J Zero $end
$var wire 1 K RegWrite $end
$var wire 1 L RegDst $end
$var wire 1 M MemtoReg $end
$var wire 1 N MemWrite $end
$var wire 1 O MemRead $end
$var wire 1 P Jump $end
$var wire 1 Q Branch $end
$var wire 1 R Bne $end
$var wire 1 S ALUSrc $end
$var wire 32 T ALUOut [31:0] $end
$var wire 2 U ALUOp [1:0] $end
$var wire 32 V ALUInB [31:0] $end
$var wire 4 W ALUControl [3:0] $end
$var reg 32 X PC [31:0] $end
$scope module AControl $end
$var wire 6 Y func [5:0] $end
$var wire 2 Z ALUOp [1:0] $end
$var reg 4 [ ALUControl [3:0] $end
$upscope $end
$scope module CUnit $end
$var wire 6 \ opcode [5:0] $end
$var reg 2 ] ALUOp [1:0] $end
$var reg 1 S ALUSrc $end
$var reg 1 R Bne $end
$var reg 1 Q Branch $end
$var reg 1 P Jump $end
$var reg 1 O MemRead $end
$var reg 1 N MemWrite $end
$var reg 1 M MemtoReg $end
$var reg 1 L RegDst $end
$var reg 1 K RegWrite $end
$upscope $end
$scope module DMem $end
$var wire 1 O ren $end
$var wire 1 N wen $end
$var wire 32 ^ dout [31:0] $end
$var wire 32 _ din [31:0] $end
$var wire 32 ` addr [31:0] $end
$upscope $end
$scope module IMem $end
$var wire 32 a addr [31:0] $end
$var wire 32 b din [31:0] $end
$var wire 1 c ren $end
$var wire 1 d wen $end
$var wire 32 e dout [31:0] $end
$upscope $end
$scope module alu $end
$var wire 32 f inB [31:0] $end
$var wire 4 g op [3:0] $end
$var wire 32 h inA [31:0] $end
$var reg 32 i out [31:0] $end
$var reg 1 J zero $end
$upscope $end
$scope module cpu_regs $end
$var wire 1 A clock $end
$var wire 5 j raA [4:0] $end
$var wire 5 k raB [4:0] $end
$var wire 32 l rdA [31:0] $end
$var wire 32 m rdB [31:0] $end
$var wire 1 B reset $end
$var wire 5 n wa [4:0] $end
$var wire 32 o wd [31:0] $end
$var wire 1 K wen $end
$var integer 32 p i [31:0] $end
$upscope $end
$upscope $end
$upscope $end
$enddefinitions $end
#0
$dumpvars
b100000 p
b0 o
b1001 n
b0 m
b0 l
b100 k
b1000 j
b0 i
b0 h
b10 g
b0 f
b1000001000100100000100000 e
0d
1c
b0 b
b0 a
b0 `
b0 _
bx ^
b10 ]
b0 \
b10 [
b10 Z
b100000 Y
b0 X
b10 W
b0 V
b10 U
b0 T
0S
0R
0Q
0P
0O
0N
0M
1L
1K
1J
b1000001000100100000100000 I
bx H
b0 G
b0 F
b100100000100000 E
b1001 D
b0 C
0B
xA
b0 @
b0 ?
b0 >
b0 =
b0 <
b0 ;
b0 :
b0 9
b0 8
b0 7
b0 6
b0 5
b0 4
b0 3
b0 2
b0 1
b0 0
b0 /
b0 .
b0 -
b0 ,
b0 +
b0 *
b0 )
b0 (
b0 '
b0 &
b0 %
b0 $
b0 #
b0 "
b0 !
$end
#80000
b1100 C
b1100 o
0J
b1100 T
b1100 `
b1100 i
b100 V
b100 f
b11111 @
b11110 ?
b11101 >
b11100 =
b11011 <
b11010 ;
b11001 :
b11000 9
b10111 8
b10110 7
b10101 6
b10100 5
b10011 4
b10010 3
b10001 2
b10000 1
b1111 0
b1110 /
b1101 .
b1100 -
b1011 ,
b1010 +
b1001 *
b1000 )
b1000 G
b1000 h
b1000 l
b111 (
b110 '
b101 &
b100 %
b100 F
b100 _
b100 m
b11 $
b10 #
b1 "
b0 !
1B
#100000
b1100 *
b10000 C
b10000 o
b1001 D
b1001 n
b101 V
b101 f
b10000 T
b10000 `
b10000 i
b0 U
b0 Z
b0 ]
1N
0K
1S
0L
b101 E
b1100 F
b1100 _
b1100 m
b1001 k
b1011 G
b1011 h
b1011 l
b1011 j
b101 Y
b101011 \
b10101101011010010000000000000101 I
b10101101011010010000000000000101 e
b1 a
b100 X
1A
#110000
0A
#120000
b1100 H
b1100 ^
b1100 C
b1100 o
b10010 D
b10010 n
0N
1O
1K
1M
b10010 F
b10010 _
b10010 m
b10010 k
b100011 \
b10001101011100100000000000000101 I
b10001101011100100000000000000101 e
b10 a
b1000 X
1A
#130000
b1100 3
b1100 F
b1100 _
b1100 m
0A
#140000
bx H
bx ^
b1 C
b1 o
b1001 D
b1001 n
b10011 V
b10011 f
0J
b1 T
b1 `
b1 i
b111 W
b111 [
b111 g
b10 U
b10 Z
b10 ]
0O
0M
0S
1L
b100100000101010 E
b10011 F
b10011 _
b10011 m
b10011 k
b1000 G
b1000 h
b1000 l
b1000 j
b101010 Y
b0 \
b1000100110100100000101010 I
b1000100110100100000101010 e
b11 a
b1100 X
1A
#150000
b1 *
0A
#160000
b10001 C
b10001 o
b10000 D
b10000 n
b1 V
b1 f
b10001 T
b10001 `
b10001 i
b10 W
b10 [
b10 g
b0 U
b0 Z
b0 ]
1S
0L
b1 E
b10000 F
b10000 _
b10000 m
b10000 k
b10000 G
b10000 h
b10000 l
b10000 j
b1 Y
b1000 \
b100010000100000000000000000001 I
b100010000100000000000000000001 e
b100 a
b10000 X
1A
#170000
b10010 C
b10010 o
b10010 T
b10010 `
b10010 i
b10001 1
b10001 G
b10001 h
b10001 l
b10001 F
b10001 _
b10001 m
0A
#180000
b0 C
b0 o
b1 D
b1 n
b1 V
b1 f
1J
b0 T
b0 `
b0 i
b110 W
b110 [
b110 g
b1 U
b1 Z
b1 ]
1Q
0K
0S
b11111111111111111111111111111011 E
b1 F
b1 _
b1 m
b1 k
b1 G
b1 h
b1 l
b1001 j
b111011 Y
b100 \
b10001001000011111111111111011 I
b10001001000011111111111111011 e
b101 a
b10100 X
1A
#190000
0A
#200000
b1100 C
b1100 o
b1001 D
b1001 n
b100 V
b100 f
0J
b1100 T
b1100 `
b1100 i
b10 W
b10 [
b10 g
b10 U
b10 Z
b10 ]
0Q
1K
1L
b100100000100000 E
b100 F
b100 _
b100 m
b100 k
b1000 G
b1000 h
b1000 l
b1000 j
b100000 Y
b0 \
b1000001000100100000100000 I
b1000001000100100000100000 e
b0 a
b0 X
1A
#210000
b1100 *
0A
#220000
b10000 C
b10000 o
b1001 D
b1001 n
b101 V
b101 f
b10000 T
b10000 `
b10000 i
b0 U
b0 Z
b0 ]
1N
0K
1S
0L
b101 E
b1100 F
b1100 _
b1100 m
b1001 k
b1011 G
b1011 h
b1011 l
b1011 j
b101 Y
b101011 \
b10101101011010010000000000000101 I
b10101101011010010000000000000101 e
b1 a
b100 X
1A
#230000
0A
#240000
b1100 H
b1100 ^
b1100 C
b1100 o
b10010 D
b10010 n
0N
1O
1K
1M
b10010 k
b100011 \
b10001101011100100000000000000101 I
b10001101011100100000000000000101 e
b10 a
b1000 X
1A
#250000
b1100 3
0A
#260000
bx H
bx ^
b1 C
b1 o
b1001 D
b1001 n
b10011 V
b10011 f
0J
b1 T
b1 `
b1 i
b111 W
b111 [
b111 g
b10 U
b10 Z
b10 ]
0O
0M
0S
1L
b100100000101010 E
b10011 F
b10011 _
b10011 m
b10011 k
b1000 G
b1000 h
b1000 l
b1000 j
b101010 Y
b0 \
b1000100110100100000101010 I
b1000100110100100000101010 e
b11 a
b1100 X
1A
#270000
b1 *
0A
#280000
b10010 C
b10010 o
b10000 D
b10000 n
b1 V
b1 f
b10010 T
b10010 `
b10010 i
b10 W
b10 [
b10 g
b0 U
b0 Z
b0 ]
1S
0L
b1 E
b10001 F
b10001 _
b10001 m
b10000 k
b10001 G
b10001 h
b10001 l
b10000 j
b1 Y
b1000 \
b100010000100000000000000000001 I
b100010000100000000000000000001 e
b100 a
b10000 X
1A
#290000
b10011 C
b10011 o
b10011 T
b10011 `
b10011 i
b10010 1
b10010 G
b10010 h
b10010 l
b10010 F
b10010 _
b10010 m
0A
#300000
b0 C
b0 o
b1 D
b1 n
b1 V
b1 f
1J
b0 T
b0 `
b0 i
b110 W
b110 [
b110 g
b1 U
b1 Z
b1 ]
1Q
0K
0S
b11111111111111111111111111111011 E
b1 F
b1 _
b1 m
b1 k
b1 G
b1 h
b1 l
b1001 j
b111011 Y
b100 \
b10001001000011111111111111011 I
b10001001000011111111111111011 e
b101 a
b10100 X
1A
#310000
0A
#320000
b1100 C
b1100 o
b1001 D
b1001 n
b100 V
b100 f
0J
b1100 T
b1100 `
b1100 i
b10 W
b10 [
b10 g
b10 U
b10 Z
b10 ]
0Q
1K
1L
b100100000100000 E
b100 F
b100 _
b100 m
b100 k
b1000 G
b1000 h
b1000 l
b1000 j
b100000 Y
b0 \
b1000001000100100000100000 I
b1000001000100100000100000 e
b0 a
b0 X
1A
#330000
b1100 *
0A
#340000
b10000 C
b10000 o
b1001 D
b1001 n
b101 V
b101 f
b10000 T
b10000 `
b10000 i
b0 U
b0 Z
b0 ]
1N
0K
1S
0L
b101 E
b1100 F
b1100 _
b1100 m
b1001 k
b1011 G
b1011 h
b1011 l
b1011 j
b101 Y
b101011 \
b10101101011010010000000000000101 I
b10101101011010010000000000000101 e
b1 a
b100 X
1A
#350000
0A
#360000
b1100 H
b1100 ^
b1100 C
b1100 o
b10010 D
b10010 n
0N
1O
1K
1M
b10010 k
b100011 \
b10001101011100100000000000000101 I
b10001101011100100000000000000101 e
b10 a
b1000 X
1A
#370000
b1100 3
0A
#380000
bx H
bx ^
b1 C
b1 o
b1001 D
b1001 n
b10011 V
b10011 f
0J
b1 T
b1 `
b1 i
b111 W
b111 [
b111 g
b10 U
b10 Z
b10 ]
0O
0M
0S
1L
b100100000101010 E
b10011 F
b10011 _
b10011 m
b10011 k
b1000 G
b1000 h
b1000 l
b1000 j
b101010 Y
b0 \
b1000100110100100000101010 I
b1000100110100100000101010 e
b11 a
b1100 X
1A
#390000
b1 *
0A
#400000
b10011 C
b10011 o
b10000 D
b10000 n
b1 V
b1 f
b10011 T
b10011 `
b10011 i
b10 W
b10 [
b10 g
b0 U
b0 Z
b0 ]
1S
0L
b1 E
b10010 F
b10010 _
b10010 m
b10000 k
b10010 G
b10010 h
b10010 l
b10000 j
b1 Y
b1000 \
b100010000100000000000000000001 I
b100010000100000000000000000001 e
b100 a
b10000 X
1A
#410000
b10100 C
b10100 o
b10100 T
b10100 `
b10100 i
b10011 1
b10011 G
b10011 h
b10011 l
b10011 F
b10011 _
b10011 m
0A
#420000
b0 C
b0 o
b1 D
b1 n
b1 V
b1 f
1J
b0 T
b0 `
b0 i
b110 W
b110 [
b110 g
b1 U
b1 Z
b1 ]
1Q
0K
0S
b11111111111111111111111111111011 E
b1 F
b1 _
b1 m
b1 k
b1 G
b1 h
b1 l
b1001 j
b111011 Y
b100 \
b10001001000011111111111111011 I
b10001001000011111111111111011 e
b101 a
b10100 X
1A
#430000
0A
#440000
b1100 C
b1100 o
b1001 D
b1001 n
b100 V
b100 f
0J
b1100 T
b1100 `
b1100 i
b10 W
b10 [
b10 g
b10 U
b10 Z
b10 ]
0Q
1K
1L
b100100000100000 E
b100 F
b100 _
b100 m
b100 k
b1000 G
b1000 h
b1000 l
b1000 j
b100000 Y
b0 \
b1000001000100100000100000 I
b1000001000100100000100000 e
b0 a
b0 X
1A
#450000
b1100 *
0A
#460000
b10000 C
b10000 o
b1001 D
b1001 n
b101 V
b101 f
b10000 T
b10000 `
b10000 i
b0 U
b0 Z
b0 ]
1N
0K
1S
0L
b101 E
b1100 F
b1100 _
b1100 m
b1001 k
b1011 G
b1011 h
b1011 l
b1011 j
b101 Y
b101011 \
b10101101011010010000000000000101 I
b10101101011010010000000000000101 e
b1 a
b100 X
1A
#470000
0A
#480000
b1100 H
b1100 ^
b1100 C
b1100 o
b10010 D
b10010 n
0N
1O
1K
1M
b10010 k
b100011 \
b10001101011100100000000000000101 I
b10001101011100100000000000000101 e
b10 a
b1000 X
1A
#490000
b1100 3
0A
#500000
bx H
bx ^
b1 C
b1 o
b1001 D
b1001 n
b10011 V
b10011 f
0J
b1 T
b1 `
b1 i
b111 W
b111 [
b111 g
b10 U
b10 Z
b10 ]
0O
0M
0S
1L
b100100000101010 E
b10011 F
b10011 _
b10011 m
b10011 k
b1000 G
b1000 h
b1000 l
b1000 j
b101010 Y
b0 \
b1000100110100100000101010 I
b1000100110100100000101010 e
b11 a
b1100 X
1A
#510000
b1 *
0A
#520000
b1 V
b1 f
b10100 C
b10100 o
b10000 D
b10000 n
b10100 T
b10100 `
b10100 i
b10 W
b10 [
b10 g
b0 U
b0 Z
b0 ]
1S
0L
b1 E
b10000 k
b10011 G
b10011 h
b10011 l
b10000 j
b1 Y
b1000 \
b100010000100000000000000000001 I
b100010000100000000000000000001 e
b100 a
b10000 X
1A
#530000
b10101 C
b10101 o
b10101 T
b10101 `
b10101 i
b10100 1
b10100 G
b10100 h
b10100 l
b10100 F
b10100 _
b10100 m
0A
#540000
b0 C
b0 o
b1 D
b1 n
b1 V
b1 f
1J
b0 T
b0 `
b0 i
b110 W
b110 [
b110 g
b1 U
b1 Z
b1 ]
1Q
0K
0S
b11111111111111111111111111111011 E
b1 F
b1 _
b1 m
b1 k
b1 G
b1 h
b1 l
b1001 j
b111011 Y
b100 \
b10001001000011111111111111011 I
b10001001000011111111111111011 e
b101 a
b10100 X
1A
#550000
0A
#560000
b1100 C
b1100 o
b1001 D
b1001 n
b100 V
b100 f
0J
b1100 T
b1100 `
b1100 i
b10 W
b10 [
b10 g
b10 U
b10 Z
b10 ]
0Q
1K
1L
b100100000100000 E
b100 F
b100 _
b100 m
b100 k
b1000 G
b1000 h
b1000 l
b1000 j
b100000 Y
b0 \
b1000001000100100000100000 I
b1000001000100100000100000 e
b0 a
b0 X
1A
#570000
b1100 *
0A
#580000
b10000 C
b10000 o
b1001 D
b1001 n
b101 V
b101 f
b10000 T
b10000 `
b10000 i
b0 U
b0 Z
b0 ]
1N
0K
1S
0L
b101 E
b1100 F
b1100 _
b1100 m
b1001 k
b1011 G
b1011 h
b1011 l
b1011 j
b101 Y
b101011 \
b10101101011010010000000000000101 I
b10101101011010010000000000000101 e
b1 a
b100 X
1A
#590000
0A
#600000
b1100 H
b1100 ^
b1100 C
b1100 o
b10010 D
b10010 n
0N
1O
1K
1M
b10010 k
b100011 \
b10001101011100100000000000000101 I
b10001101011100100000000000000101 e
b10 a
b1000 X
1A
#610000
b1100 3
0A
#620000
bx H
bx ^
b1 C
b1 o
b1001 D
b1001 n
b10011 V
b10011 f
0J
b1 T
b1 `
b1 i
b111 W
b111 [
b111 g
b10 U
b10 Z
b10 ]
0O
0M
0S
1L
b100100000101010 E
b10011 F
b10011 _
b10011 m
b10011 k
b1000 G
b1000 h
b1000 l
b1000 j
b101010 Y
b0 \
b1000100110100100000101010 I
b1000100110100100000101010 e
b11 a
b1100 X
1A
#630000
b1 *
0A
#640000
b10101 C
b10101 o
b10000 D
b10000 n
b1 V
b1 f
b10101 T
b10101 `
b10101 i
b10 W
b10 [
b10 g
b0 U
b0 Z
b0 ]
1S
0L
b1 E
b10100 F
b10100 _
b10100 m
b10000 k
b10100 G
b10100 h
b10100 l
b10000 j
b1 Y
b1000 \
b100010000100000000000000000001 I
b100010000100000000000000000001 e
b100 a
b10000 X
1A
#650000
b10110 C
b10110 o
b10110 T
b10110 `
b10110 i
b10101 1
b10101 G
b10101 h
b10101 l
b10101 F
b10101 _
b10101 m
0A
#660000
b0 C
b0 o
b1 D
b1 n
b1 V
b1 f
1J
b0 T
b0 `
b0 i
b110 W
b110 [
b110 g
b1 U
b1 Z
b1 ]
1Q
0K
0S
b11111111111111111111111111111011 E
b1 F
b1 _
b1 m
b1 k
b1 G
b1 h
b1 l
b1001 j
b111011 Y
b100 \
b10001001000011111111111111011 I
b10001001000011111111111111011 e
b101 a
b10100 X
1A
#670000
0A
#680000
b1100 C
b1100 o
b1001 D
b1001 n
b100 V
b100 f
0J
b1100 T
b1100 `
b1100 i
b10 W
b10 [
b10 g
b10 U
b10 Z
b10 ]
0Q
1K
1L
b100100000100000 E
b100 F
b100 _
b100 m
b100 k
b1000 G
b1000 h
b1000 l
b1000 j
b100000 Y
b0 \
b1000001000100100000100000 I
b1000001000100100000100000 e
b0 a
b0 X
1A
#690000
b1100 *
0A
#700000
b10000 C
b10000 o
b1001 D
b1001 n
b101 V
b101 f
b10000 T
b10000 `
b10000 i
b0 U
b0 Z
b0 ]
1N
0K
1S
0L
b101 E
b1100 F
b1100 _
b1100 m
b1001 k
b1011 G
b1011 h
b1011 l
b1011 j
b101 Y
b101011 \
b10101101011010010000000000000101 I
b10101101011010010000000000000101 e
b1 a
b100 X
1A
#710000
0A
#720000
b1100 H
b1100 ^
b1100 C
b1100 o
b10010 D
b10010 n
0N
1O
1K
1M
b10010 k
b100011 \
b10001101011100100000000000000101 I
b10001101011100100000000000000101 e
b10 a
b1000 X
1A
#730000
b1100 3
0A
#740000
bx H
bx ^
b1 C
b1 o
b1001 D
b1001 n
b10011 V
b10011 f
0J
b1 T
b1 `
b1 i
b111 W
b111 [
b111 g
b10 U
b10 Z
b10 ]
0O
0M
0S
1L
b100100000101010 E
b10011 F
b10011 _
b10011 m
b10011 k
b1000 G
b1000 h
b1000 l
b1000 j
b101010 Y
b0 \
b1000100110100100000101010 I
b1000100110100100000101010 e
b11 a
b1100 X
1A
#750000
b1 *
0A
#760000
b10110 C
b10110 o
b10000 D
b10000 n
b1 V
b1 f
b10110 T
b10110 `
b10110 i
b10 W
b10 [
b10 g
b0 U
b0 Z
b0 ]
1S
0L
b1 E
b10101 F
b10101 _
b10101 m
b10000 k
b10101 G
b10101 h
b10101 l
b10000 j
b1 Y
b1000 \
b100010000100000000000000000001 I
b100010000100000000000000000001 e
b100 a
b10000 X
1A
#770000
b10111 C
b10111 o
b10111 T
b10111 `
b10111 i
b10110 1
b10110 G
b10110 h
b10110 l
b10110 F
b10110 _
b10110 m
0A
#780000
b0 C
b0 o
b1 D
b1 n
b1 V
b1 f
1J
b0 T
b0 `
b0 i
b110 W
b110 [
b110 g
b1 U
b1 Z
b1 ]
1Q
0K
0S
b11111111111111111111111111111011 E
b1 F
b1 _
b1 m
b1 k
b1 G
b1 h
b1 l
b1001 j
b111011 Y
b100 \
b10001001000011111111111111011 I
b10001001000011111111111111011 e
b101 a
b10100 X
1A
#790000
0A
#800000
b1100 C
b1100 o
b1001 D
b1001 n
b100 V
b100 f
0J
b1100 T
b1100 `
b1100 i
b10 W
b10 [
b10 g
b10 U
b10 Z
b10 ]
0Q
1K
1L
b100100000100000 E
b100 F
b100 _
b100 m
b100 k
b1000 G
b1000 h
b1000 l
b1000 j
b100000 Y
b0 \
b1000001000100100000100000 I
b1000001000100100000100000 e
b0 a
b0 X
1A
#810000
b1100 *
0A
#820000
b10000 C
b10000 o
b1001 D
b1001 n
b101 V
b101 f
b10000 T
b10000 `
b10000 i
b0 U
b0 Z
b0 ]
1N
0K
1S
0L
b101 E
b1100 F
b1100 _
b1100 m
b1001 k
b1011 G
b1011 h
b1011 l
b1011 j
b101 Y
b101011 \
b10101101011010010000000000000101 I
b10101101011010010000000000000101 e
b1 a
b100 X
1A
#830000
0A
#840000
b1100 H
b1100 ^
b1100 C
b1100 o
b10010 D
b10010 n
0N
1O
1K
1M
b10010 k
b100011 \
b10001101011100100000000000000101 I
b10001101011100100000000000000101 e
b10 a
b1000 X
1A
#850000
b1100 3
0A
#860000
bx H
bx ^
b1 C
b1 o
b1001 D
b1001 n
b10011 V
b10011 f
0J
b1 T
b1 `
b1 i
b111 W
b111 [
b111 g
b10 U
b10 Z
b10 ]
0O
0M
0S
1L
b100100000101010 E
b10011 F
b10011 _
b10011 m
b10011 k
b1000 G
b1000 h
b1000 l
b1000 j
b101010 Y
b0 \
b1000100110100100000101010 I
b1000100110100100000101010 e
b11 a
b1100 X
1A
#870000
b1 *
0A
#880000
b10111 C
b10111 o
b10000 D
b10000 n
b1 V
b1 f
b10111 T
b10111 `
b10111 i
b10 W
b10 [
b10 g
b0 U
b0 Z
b0 ]
1S
0L
b1 E
b10110 F
b10110 _
b10110 m
b10000 k
b10110 G
b10110 h
b10110 l
b10000 j
b1 Y
b1000 \
b100010000100000000000000000001 I
b100010000100000000000000000001 e
b100 a
b10000 X
1A
#890000
b11000 C
b11000 o
b11000 T
b11000 `
b11000 i
b10111 1
b10111 G
b10111 h
b10111 l
b10111 F
b10111 _
b10111 m
0A
#900000
b0 C
b0 o
b1 D
b1 n
b1 V
b1 f
1J
b0 T
b0 `
b0 i
b110 W
b110 [
b110 g
b1 U
b1 Z
b1 ]
1Q
0K
0S
b11111111111111111111111111111011 E
b1 F
b1 _
b1 m
b1 k
b1 G
b1 h
b1 l
b1001 j
b111011 Y
b100 \
b10001001000011111111111111011 I
b10001001000011111111111111011 e
b101 a
b10100 X
1A
#910000
0A
#920000
b1100 C
b1100 o
b1001 D
b1001 n
b100 V
b100 f
0J
b1100 T
b1100 `
b1100 i
b10 W
b10 [
b10 g
b10 U
b10 Z
b10 ]
0Q
1K
1L
b100100000100000 E
b100 F
b100 _
b100 m
b100 k
b1000 G
b1000 h
b1000 l
b1000 j
b100000 Y
b0 \
b1000001000100100000100000 I
b1000001000100100000100000 e
b0 a
b0 X
1A
#930000
b1100 *
0A
#940000
b10000 C
b10000 o
b1001 D
b1001 n
b101 V
b101 f
b10000 T
b10000 `
b10000 i
b0 U
b0 Z
b0 ]
1N
0K
1S
0L
b101 E
b1100 F
b1100 _
b1100 m
b1001 k
b1011 G
b1011 h
b1011 l
b1011 j
b101 Y
b101011 \
b10101101011010010000000000000101 I
b10101101011010010000000000000101 e
b1 a
b100 X
1A
#950000
0A
#960000
b1100 H
b1100 ^
b1100 C
b1100 o
b10010 D
b10010 n
0N
1O
1K
1M
b10010 k
b100011 \
b10001101011100100000000000000101 I
b10001101011100100000000000000101 e
b10 a
b1000 X
1A
#970000
b1100 3
0A
#980000
bx H
bx ^
b1 C
b1 o
b1001 D
b1001 n
b10011 V
b10011 f
0J
b1 T
b1 `
b1 i
b111 W
b111 [
b111 g
b10 U
b10 Z
b10 ]
0O
0M
0S
1L
b100100000101010 E
b10011 F
b10011 _
b10011 m
b10011 k
b1000 G
b1000 h
b1000 l
b1000 j
b101010 Y
b0 \
b1000100110100100000101010 I
b1000100110100100000101010 e
b11 a
b1100 X
1A
#990000
b1 *
0A
#1000000
b11000 C
b11000 o
b10000 D
b10000 n
b1 V
b1 f
b11000 T
b11000 `
b11000 i
b10 W
b10 [
b10 g
b0 U
b0 Z
b0 ]
1S
0L
b1 E
b10111 F
b10111 _
b10111 m
b10000 k
b10111 G
b10111 h
b10111 l
b10000 j
b1 Y
b1000 \
b100010000100000000000000000001 I
b100010000100000000000000000001 e
b100 a
b10000 X
1A
#1010000
b11001 C
b11001 o
b11001 T
b11001 `
b11001 i
b11000 1
b11000 G
b11000 h
b11000 l
b11000 F
b11000 _
b11000 m
0A
#1020000
b0 C
b0 o
b1 D
b1 n
b1 V
b1 f
1J
b0 T
b0 `
b0 i
b110 W
b110 [
b110 g
b1 U
b1 Z
b1 ]
1Q
0K
0S
b11111111111111111111111111111011 E
b1 F
b1 _
b1 m
b1 k
b1 G
b1 h
b1 l
b1001 j
b111011 Y
b100 \
b10001001000011111111111111011 I
b10001001000011111111111111011 e
b101 a
b10100 X
1A
#1030000
0A
#1040000
b1100 C
b1100 o
b1001 D
b1001 n
b100 V
b100 f
0J
b1100 T
b1100 `
b1100 i
b10 W
b10 [
b10 g
b10 U
b10 Z
b10 ]
0Q
1K
1L
b100100000100000 E
b100 F
b100 _
b100 m
b100 k
b1000 G
b1000 h
b1000 l
b1000 j
b100000 Y
b0 \
b1000001000100100000100000 I
b1000001000100100000100000 e
b0 a
b0 X
1A
#1050000
b1100 *
0A
#1060000
b10000 C
b10000 o
b1001 D
b1001 n
b101 V
b101 f
b10000 T
b10000 `
b10000 i
b0 U
b0 Z
b0 ]
1N
0K
1S
0L
b101 E
b1100 F
b1100 _
b1100 m
b1001 k
b1011 G
b1011 h
b1011 l
b1011 j
b101 Y
b101011 \
b10101101011010010000000000000101 I
b10101101011010010000000000000101 e
b1 a
b100 X
1A
#1070000
0A
#1080000
b1100 H
b1100 ^
b1100 C
b1100 o
b10010 D
b10010 n
0N
1O
1K
1M
b10010 k
b100011 \
b10001101011100100000000000000101 I
b10001101011100100000000000000101 e
b10 a
b1000 X
1A
