Lab5/cpu_tb.vcd
$date
	Thu Dec  7 20:19:27 2023
$end
$version
	Icarus Verilog
$end
$timescale
	1ps
$end
$scope module cpu_tb $end
$scope module cpu0 $end
$scope module cpu_regs $end
$var reg 32 ! \data[0] [31:0] $end
$upscope $end
$upscope $end
$upscope $end
$scope module cpu_tb $end
$scope module cpu0 $end
$scope module cpu_regs $end
$var reg 32 " \data[1] [31:0] $end
$upscope $end
$upscope $end
$upscope $end
$scope module cpu_tb $end
$scope module cpu0 $end
$scope module cpu_regs $end
$var reg 32 # \data[2] [31:0] $end
$upscope $end
$upscope $end
$upscope $end
$scope module cpu_tb $end
$scope module cpu0 $end
$scope module cpu_regs $end
$var reg 32 $ \data[3] [31:0] $end
$upscope $end
$upscope $end
$upscope $end
$scope module cpu_tb $end
$scope module cpu0 $end
$scope module cpu_regs $end
$var reg 32 % \data[4] [31:0] $end
$upscope $end
$upscope $end
$upscope $end
$scope module cpu_tb $end
$scope module cpu0 $end
$scope module cpu_regs $end
$var reg 32 & \data[5] [31:0] $end
$upscope $end
$upscope $end
$upscope $end
$scope module cpu_tb $end
$scope module cpu0 $end
$scope module cpu_regs $end
$var reg 32 ' \data[6] [31:0] $end
$upscope $end
$upscope $end
$upscope $end
$scope module cpu_tb $end
$scope module cpu0 $end
$scope module cpu_regs $end
$var reg 32 ( \data[7] [31:0] $end
$upscope $end
$upscope $end
$upscope $end
$scope module cpu_tb $end
$scope module cpu0 $end
$scope module cpu_regs $end
$var reg 32 ) \data[8] [31:0] $end
$upscope $end
$upscope $end
$upscope $end
$scope module cpu_tb $end
$scope module cpu0 $end
$scope module cpu_regs $end
$var reg 32 * \data[9] [31:0] $end
$upscope $end
$upscope $end
$upscope $end
$scope module cpu_tb $end
$scope module cpu0 $end
$scope module cpu_regs $end
$var reg 32 + \data[10] [31:0] $end
$upscope $end
$upscope $end
$upscope $end
$scope module cpu_tb $end
$scope module cpu0 $end
$scope module cpu_regs $end
$var reg 32 , \data[11] [31:0] $end
$upscope $end
$upscope $end
$upscope $end
$scope module cpu_tb $end
$scope module cpu0 $end
$scope module cpu_regs $end
$var reg 32 - \data[12] [31:0] $end
$upscope $end
$upscope $end
$upscope $end
$scope module cpu_tb $end
$scope module cpu0 $end
$scope module cpu_regs $end
$var reg 32 . \data[13] [31:0] $end
$upscope $end
$upscope $end
$upscope $end
$scope module cpu_tb $end
$scope module cpu0 $end
$scope module cpu_regs $end
$var reg 32 / \data[14] [31:0] $end
$upscope $end
$upscope $end
$upscope $end
$scope module cpu_tb $end
$scope module cpu0 $end
$scope module cpu_regs $end
$var reg 32 0 \data[15] [31:0] $end
$upscope $end
$upscope $end
$upscope $end
$scope module cpu_tb $end
$scope module cpu0 $end
$scope module cpu_regs $end
$var reg 32 1 \data[16] [31:0] $end
$upscope $end
$upscope $end
$upscope $end
$scope module cpu_tb $end
$scope module cpu0 $end
$scope module cpu_regs $end
$var reg 32 2 \data[17] [31:0] $end
$upscope $end
$upscope $end
$upscope $end
$scope module cpu_tb $end
$scope module cpu0 $end
$scope module cpu_regs $end
$var reg 32 3 \data[18] [31:0] $end
$upscope $end
$upscope $end
$upscope $end
$scope module cpu_tb $end
$scope module cpu0 $end
$scope module cpu_regs $end
$var reg 32 4 \data[19] [31:0] $end
$upscope $end
$upscope $end
$upscope $end
$scope module cpu_tb $end
$scope module cpu0 $end
$scope module cpu_regs $end
$var reg 32 5 \data[20] [31:0] $end
$upscope $end
$upscope $end
$upscope $end
$scope module cpu_tb $end
$scope module cpu0 $end
$scope module cpu_regs $end
$var reg 32 6 \data[21] [31:0] $end
$upscope $end
$upscope $end
$upscope $end
$scope module cpu_tb $end
$scope module cpu0 $end
$scope module cpu_regs $end
$var reg 32 7 \data[22] [31:0] $end
$upscope $end
$upscope $end
$upscope $end
$scope module cpu_tb $end
$scope module cpu0 $end
$scope module cpu_regs $end
$var reg 32 8 \data[23] [31:0] $end
$upscope $end
$upscope $end
$upscope $end
$scope module cpu_tb $end
$scope module cpu0 $end
$scope module cpu_regs $end
$var reg 32 9 \data[24] [31:0] $end
$upscope $end
$upscope $end
$upscope $end
$scope module cpu_tb $end
$scope module cpu0 $end
$scope module cpu_regs $end
$var reg 32 : \data[25] [31:0] $end
$upscope $end
$upscope $end
$upscope $end
$scope module cpu_tb $end
$scope module cpu0 $end
$scope module cpu_regs $end
$var reg 32 ; \data[26] [31:0] $end
$upscope $end
$upscope $end
$upscope $end
$scope module cpu_tb $end
$scope module cpu0 $end
$scope module cpu_regs $end
$var reg 32 < \data[27] [31:0] $end
$upscope $end
$upscope $end
$upscope $end
$scope module cpu_tb $end
$scope module cpu0 $end
$scope module cpu_regs $end
$var reg 32 = \data[28] [31:0] $end
$upscope $end
$upscope $end
$upscope $end
$scope module cpu_tb $end
$scope module cpu0 $end
$scope module cpu_regs $end
$var reg 32 > \data[29] [31:0] $end
$upscope $end
$upscope $end
$upscope $end
$scope module cpu_tb $end
$scope module cpu0 $end
$scope module cpu_regs $end
$var reg 32 ? \data[30] [31:0] $end
$upscope $end
$upscope $end
$upscope $end
$scope module cpu_tb $end
$scope module cpu0 $end
$scope module cpu_regs $end
$var reg 32 @ \data[31] [31:0] $end
$upscope $end
$upscope $end
$upscope $end
$scope module cpu_tb $end
$scope module cpu0 $end
$var wire 1 A clk $end
$var wire 1 B reset $end
$var wire 32 C wd [31:0] $end
$var wire 5 D wa [4:0] $end
$var wire 32 E signExtendedInstr [31:0] $end
$var wire 32 F rdB [31:0] $end
$var wire 32 G rdA [31:0] $end
$var wire 32 H memOut [31:0] $end
$var wire 32 I instr [31:0] $end
$var wire 1 J Zero $end
$var wire 1 K RegWrite $end
$var wire 1 L RegDst $end
$var wire 1 M MemtoReg $end
$var wire 1 N MemWrite $end
$var wire 1 O MemRead $end
$var wire 1 P Jump $end
$var wire 1 Q Branch $end
$var wire 1 R ALUSrc $end
$var wire 32 S ALUOut [31:0] $end
$var wire 2 T ALUOp [1:0] $end
$var wire 32 U ALUInB [31:0] $end
$var wire 4 V ALUControl [3:0] $end
$var reg 32 W PC [31:0] $end
$scope module AControl $end
$var wire 6 X func [5:0] $end
$var wire 2 Y ALUOp [1:0] $end
$var reg 4 Z ALUControl [3:0] $end
$upscope $end
$scope module CUnit $end
$var wire 6 [ opcode [5:0] $end
$var reg 2 \ ALUOp [1:0] $end
$var reg 1 R ALUSrc $end
$var reg 1 Q Branch $end
$var reg 1 P Jump $end
$var reg 1 O MemRead $end
$var reg 1 N MemWrite $end
$var reg 1 M MemtoReg $end
$var reg 1 L RegDst $end
$var reg 1 K RegWrite $end
$upscope $end
$scope module DMem $end
$var wire 1 O ren $end
$var wire 1 N wen $end
$var wire 32 ] dout [31:0] $end
$var wire 32 ^ din [31:0] $end
$var wire 32 _ addr [31:0] $end
$upscope $end
$scope module IMem $end
$var wire 32 ` addr [31:0] $end
$var wire 32 a din [31:0] $end
$var wire 1 b ren $end
$var wire 1 c wen $end
$var wire 32 d dout [31:0] $end
$upscope $end
$scope module alu $end
$var wire 32 e inB [31:0] $end
$var wire 4 f op [3:0] $end
$var wire 32 g inA [31:0] $end
$var reg 32 h out [31:0] $end
$var reg 1 J zero $end
$upscope $end
$scope module cpu_regs $end
$var wire 1 A clock $end
$var wire 5 i raA [4:0] $end
$var wire 5 j raB [4:0] $end
$var wire 32 k rdA [31:0] $end
$var wire 32 l rdB [31:0] $end
$var wire 1 B reset $end
$var wire 5 m wa [4:0] $end
$var wire 32 n wd [31:0] $end
$var wire 1 K wen $end
$var integer 32 o i [31:0] $end
$upscope $end
$upscope $end
$upscope $end
$enddefinitions $end
#0
$dumpvars
b100000 o
b0 n
b1001 m
b0 l
b0 k
b100 j
b1000 i
b0 h
b0 g
b10 f
b0 e
b1000001000100100000100000 d
0c
1b
b0 a
b0 `
b0 _
b0 ^
bx ]
b10 \
b0 [
b10 Z
b10 Y
b100000 X
b0 W
b10 V
b0 U
b10 T
b0 S
0R
0Q
0P
0O
0N
0M
1L
1K
1J
b1000001000100100000100000 I
bx H
b0 G
b0 F
b100100000100000 E
b1001 D
b0 C
0B
xA
b0 @
b0 ?
b0 >
b0 =
b0 <
b0 ;
b0 :
b0 9
b0 8
b0 7
b0 6
b0 5
b0 4
b0 3
b0 2
b0 1
b0 0
b0 /
b0 .
b0 -
b0 ,
b0 +
b0 *
b0 )
b0 (
b0 '
b0 &
b0 %
b0 $
b0 #
b0 "
b0 !
$end
#80000
b1100 C
b1100 n
0J
b1100 S
b1100 _
b1100 h
b100 U
b100 e
b11111 @
b11110 ?
b11101 >
b11100 =
b11011 <
b11010 ;
b11001 :
b11000 9
b10111 8
b10110 7
b10101 6
b10100 5
b10011 4
b10010 3
b10001 2
b10000 1
b1111 0
b1110 /
b1101 .
b1100 -
b1011 ,
b1010 +
b1001 *
b1000 )
b1000 G
b1000 g
b1000 k
b111 (
b110 '
b101 &
b100 %
b100 F
b100 ^
b100 l
b11 $
b10 #
b1 "
b0 !
1B
#100000
b1100 *
b10000 C
b10000 n
b1001 D
b1001 m
b101 U
b101 e
b10000 S
b10000 _
b10000 h
b0 T
b0 Y
b0 \
1N
0K
1R
0L
b101 E
b1100 F
b1100 ^
b1100 l
b1001 j
b1011 G
b1011 g
b1011 k
b1011 i
b101 X
b101011 [
b10101101011010010000000000000101 I
b10101101011010010000000000000101 d
b1 W
b1 `
1A
#110000
0A
#120000
b1100 H
b1100 ]
b1100 C
b1100 n
b10010 D
b10010 m
0N
1O
1K
1M
b10010 F
b10010 ^
b10010 l
b10010 j
b100011 [
b10001101011100100000000000000101 I
b10001101011100100000000000000101 d
b10 W
b10 `
1A
#130000
b1100 3
b1100 F
b1100 ^
b1100 l
0A
#140000
bx H
bx ]
b1 C
b1 n
b1001 D
b1001 m
b10011 U
b10011 e
0J
b1 S
b1 _
b1 h
b111 V
b111 Z
b111 f
b10 T
b10 Y
b10 \
0O
0M
0R
1L
b100100000101010 E
b10011 F
b10011 ^
b10011 l
b10011 j
b1000 G
b1000 g
b1000 k
b1000 i
b101010 X
b0 [
b1000100110100100000101010 I
b1000100110100100000101010 d
b11 W
b11 `
1A
#150000
b1 *
0A
#160000
b10001 C
b10001 n
b10000 D
b10000 m
b1 U
b1 e
b10001 S
b10001 _
b10001 h
b10 V
b10 Z
b10 f
b0 T
b0 Y
b0 \
1R
0L
b1 E
b10000 F
b10000 ^
b10000 l
b10000 j
b10000 G
b10000 g
b10000 k
b10000 i
b1 X
b1000 [
b100010000100000000000000000001 I
b100010000100000000000000000001 d
b100 W
b100 `
1A
#170000
b10010 C
b10010 n
b10010 S
b10010 _
b10010 h
b10001 1
b10001 G
b10001 g
b10001 k
b10001 F
b10001 ^
b10001 l
0A
#180000
b0 C
b0 n
b1 D
b1 m
b1 U
b1 e
1J
b0 S
b0 _
b0 h
b110 V
b110 Z
b110 f
b1 T
b1 Y
b1 \
1Q
0K
0R
b11111111111111111111111111111011 E
b1 F
b1 ^
b1 l
b1 j
b1 G
b1 g
b1 k
b1001 i
b111011 X
b100 [
b10001001000011111111111111011 I
b10001001000011111111111111011 d
b101 W
b101 `
1A
#190000
b1100 C
b1100 n
b1001 D
b1001 m
b100 U
b100 e
0J
b1100 S
b1100 _
b1100 h
b10 V
b10 Z
b10 f
b10 T
b10 Y
b10 \
0Q
1K
1L
b100100000100000 E
b100 F
b100 ^
b100 l
b100 j
b1000 G
b1000 g
b1000 k
b1000 i
b100000 X
b0 [
b1000001000100100000100000 I
b1000001000100100000100000 d
b0 W
b0 `
0A
#200000
b10000 C
b10000 n
b1001 D
b1001 m
b101 U
b101 e
b10000 S
b10000 _
b10000 h
b0 T
b0 Y
b0 \
1N
0K
1R
0L
b101 E
b1 F
b1 ^
b1 l
b1001 j
b1011 G
b1011 g
b1011 k
b1011 i
b101 X
b101011 [
b10101101011010010000000000000101 I
b10101101011010010000000000000101 d
b1 W
b1 `
1A
#210000
0A
#220000
b1 H
b1 ]
b1 C
b1 n
b10010 D
b10010 m
0N
1O
1K
1M
b1100 F
b1100 ^
b1100 l
b10010 j
b100011 [
b10001101011100100000000000000101 I
b10001101011100100000000000000101 d
b10 W
b10 `
1A
#230000
b1 3
b1 F
b1 ^
b1 l
0A
#240000
bx H
bx ]
b1001 D
b1001 m
b10011 U
b10011 e
0J
b1 S
b1 _
b1 h
b111 V
b111 Z
b111 f
b10 T
b10 Y
b10 \
0O
0M
0R
1L
b100100000101010 E
b10011 F
b10011 ^
b10011 l
b10011 j
b1000 G
b1000 g
b1000 k
b1000 i
b101010 X
b0 [
b1000100110100100000101010 I
b1000100110100100000101010 d
b11 W
b11 `
1A
#250000
b1 *
0A
#260000
b10010 C
b10010 n
b10000 D
b10000 m
b1 U
b1 e
b10010 S
b10010 _
b10010 h
b10 V
b10 Z
b10 f
b0 T
b0 Y
b0 \
1R
0L
b1 E
b10001 F
b10001 ^
b10001 l
b10000 j
b10001 G
b10001 g
b10001 k
b10000 i
b1 X
b1000 [
b100010000100000000000000000001 I
b100010000100000000000000000001 d
b100 W
b100 `
1A
#270000
b10011 C
b10011 n
b10011 S
b10011 _
b10011 h
b10010 1
b10010 G
b10010 g
b10010 k
b10010 F
b10010 ^
b10010 l
0A
#280000
b0 C
b0 n
b1 D
b1 m
b1 U
b1 e
1J
b0 S
b0 _
b0 h
b110 V
b110 Z
b110 f
b1 T
b1 Y
b1 \
1Q
0K
0R
b11111111111111111111111111111011 E
b1 F
b1 ^
b1 l
b1 j
b1 G
b1 g
b1 k
b1001 i
b111011 X
b100 [
b10001001000011111111111111011 I
b10001001000011111111111111011 d
b101 W
b101 `
1A
#290000
b1100 C
b1100 n
b1001 D
b1001 m
b100 U
b100 e
0J
b1100 S
b1100 _
b1100 h
b10 V
b10 Z
b10 f
b10 T
b10 Y
b10 \
0Q
1K
1L
b100100000100000 E
b100 F
b100 ^
b100 l
b100 j
b1000 G
b1000 g
b1000 k
b1000 i
b100000 X
b0 [
b1000001000100100000100000 I
b1000001000100100000100000 d
b0 W
b0 `
0A
#300000
b10000 C
b10000 n
b1001 D
b1001 m
b101 U
b101 e
b10000 S
b10000 _
b10000 h
b0 T
b0 Y
b0 \
1N
0K
1R
0L
b101 E
b1 F
b1 ^
b1 l
b1001 j
b1011 G
b1011 g
b1011 k
b1011 i
b101 X
b101011 [
b10101101011010010000000000000101 I
b10101101011010010000000000000101 d
b1 W
b1 `
1A
#310000
0A
#320000
b1 H
b1 ]
b1 C
b1 n
b10010 D
b10010 m
0N
1O
1K
1M
b10010 j
b100011 [
b10001101011100100000000000000101 I
b10001101011100100000000000000101 d
b10 W
b10 `
1A
#330000
b1 3
0A
#340000
bx H
bx ]
b1001 D
b1001 m
b10011 U
b10011 e
0J
b1 S
b1 _
b1 h
b111 V
b111 Z
b111 f
b10 T
b10 Y
b10 \
0O
0M
0R
1L
b100100000101010 E
b10011 F
b10011 ^
b10011 l
b10011 j
b1000 G
b1000 g
b1000 k
b1000 i
b101010 X
b0 [
b1000100110100100000101010 I
b1000100110100100000101010 d
b11 W
b11 `
1A
#350000
b1 *
0A
#360000
b10011 C
b10011 n
b10000 D
b10000 m
b1 U
b1 e
b10011 S
b10011 _
b10011 h
b10 V
b10 Z
b10 f
b0 T
b0 Y
b0 \
1R
0L
b1 E
b10010 F
b10010 ^
b10010 l
b10000 j
b10010 G
b10010 g
b10010 k
b10000 i
b1 X
b1000 [
b100010000100000000000000000001 I
b100010000100000000000000000001 d
b100 W
b100 `
1A
#370000
b10100 C
b10100 n
b10100 S
b10100 _
b10100 h
b10011 1
b10011 G
b10011 g
b10011 k
b10011 F
b10011 ^
b10011 l
0A
#380000
b0 C
b0 n
b1 D
b1 m
b1 U
b1 e
1J
b0 S
b0 _
b0 h
b110 V
b110 Z
b110 f
b1 T
b1 Y
b1 \
1Q
0K
0R
b11111111111111111111111111111011 E
b1 F
b1 ^
b1 l
b1 j
b1 G
b1 g
b1 k
b1001 i
b111011 X
b100 [
b10001001000011111111111111011 I
b10001001000011111111111111011 d
b101 W
b101 `
1A
#390000
b1100 C
b1100 n
b1001 D
b1001 m
b100 U
b100 e
0J
b1100 S
b1100 _
b1100 h
b10 V
b10 Z
b10 f
b10 T
b10 Y
b10 \
0Q
1K
1L
b100100000100000 E
b100 F
b100 ^
b100 l
b100 j
b1000 G
b1000 g
b1000 k
b1000 i
b100000 X
b0 [
b1000001000100100000100000 I
b1000001000100100000100000 d
b0 W
b0 `
0A
#400000
b10000 C
b10000 n
b1001 D
b1001 m
b101 U
b101 e
b10000 S
b10000 _
b10000 h
b0 T
b0 Y
b0 \
1N
0K
1R
0L
b101 E
b1 F
b1 ^
b1 l
b1001 j
b1011 G
b1011 g
b1011 k
b1011 i
b101 X
b101011 [
b10101101011010010000000000000101 I
b10101101011010010000000000000101 d
b1 W
b1 `
1A
#410000
0A
#420000
b1 H
b1 ]
b1 C
b1 n
b10010 D
b10010 m
0N
1O
1K
1M
b10010 j
b100011 [
b10001101011100100000000000000101 I
b10001101011100100000000000000101 d
b10 W
b10 `
1A
#430000
b1 3
0A
#440000
bx H
bx ]
b1001 D
b1001 m
b10011 U
b10011 e
0J
b1 S
b1 _
b1 h
b111 V
b111 Z
b111 f
b10 T
b10 Y
b10 \
0O
0M
0R
1L
b100100000101010 E
b10011 F
b10011 ^
b10011 l
b10011 j
b1000 G
b1000 g
b1000 k
b1000 i
b101010 X
b0 [
b1000100110100100000101010 I
b1000100110100100000101010 d
b11 W
b11 `
1A
#450000
b1 *
0A
#460000
b1 U
b1 e
b10100 C
b10100 n
b10000 D
b10000 m
b10100 S
b10100 _
b10100 h
b10 V
b10 Z
b10 f
b0 T
b0 Y
b0 \
1R
0L
b1 E
b10000 j
b10011 G
b10011 g
b10011 k
b10000 i
b1 X
b1000 [
b100010000100000000000000000001 I
b100010000100000000000000000001 d
b100 W
b100 `
1A
#470000
b10101 C
b10101 n
b10101 S
b10101 _
b10101 h
b10100 1
b10100 G
b10100 g
b10100 k
b10100 F
b10100 ^
b10100 l
0A
#480000
b0 C
b0 n
b1 D
b1 m
b1 U
b1 e
1J
b0 S
b0 _
b0 h
b110 V
b110 Z
b110 f
b1 T
b1 Y
b1 \
1Q
0K
0R
b11111111111111111111111111111011 E
b1 F
b1 ^
b1 l
b1 j
b1 G
b1 g
b1 k
b1001 i
b111011 X
b100 [
b10001001000011111111111111011 I
b10001001000011111111111111011 d
b101 W
b101 `
1A
#490000
b1100 C
b1100 n
b1001 D
b1001 m
b100 U
b100 e
0J
b1100 S
b1100 _
b1100 h
b10 V
b10 Z
b10 f
b10 T
b10 Y
b10 \
0Q
1K
1L
b100100000100000 E
b100 F
b100 ^
b100 l
b100 j
b1000 G
b1000 g
b1000 k
b1000 i
b100000 X
b0 [
b1000001000100100000100000 I
b1000001000100100000100000 d
b0 W
b0 `
0A
#500000
b10000 C
b10000 n
b1001 D
b1001 m
b101 U
b101 e
b10000 S
b10000 _
b10000 h
b0 T
b0 Y
b0 \
1N
0K
1R
0L
b101 E
b1 F
b1 ^
b1 l
b1001 j
b1011 G
b1011 g
b1011 k
b1011 i
b101 X
b101011 [
b10101101011010010000000000000101 I
b10101101011010010000000000000101 d
b1 W
b1 `
1A
#510000
0A
#520000
b1 H
b1 ]
b1 C
b1 n
b10010 D
b10010 m
0N
1O
1K
1M
b10010 j
b100011 [
b10001101011100100000000000000101 I
b10001101011100100000000000000101 d
b10 W
b10 `
1A
#530000
b1 3
0A
#540000
bx H
bx ]
b1001 D
b1001 m
b10011 U
b10011 e
0J
b1 S
b1 _
b1 h
b111 V
b111 Z
b111 f
b10 T
b10 Y
b10 \
0O
0M
0R
1L
b100100000101010 E
b10011 F
b10011 ^
b10011 l
b10011 j
b1000 G
b1000 g
b1000 k
b1000 i
b101010 X
b0 [
b1000100110100100000101010 I
b1000100110100100000101010 d
b11 W
b11 `
1A
#550000
b1 *
0A
#560000
b10101 C
b10101 n
b10000 D
b10000 m
b1 U
b1 e
b10101 S
b10101 _
b10101 h
b10 V
b10 Z
b10 f
b0 T
b0 Y
b0 \
1R
0L
b1 E
b10100 F
b10100 ^
b10100 l
b10000 j
b10100 G
b10100 g
b10100 k
b10000 i
b1 X
b1000 [
b100010000100000000000000000001 I
b100010000100000000000000000001 d
b100 W
b100 `
1A
#570000
b10110 C
b10110 n
b10110 S
b10110 _
b10110 h
b10101 1
b10101 G
b10101 g
b10101 k
b10101 F
b10101 ^
b10101 l
0A
#580000
b0 C
b0 n
b1 D
b1 m
b1 U
b1 e
1J
b0 S
b0 _
b0 h
b110 V
b110 Z
b110 f
b1 T
b1 Y
b1 \
1Q
0K
0R
b11111111111111111111111111111011 E
b1 F
b1 ^
b1 l
b1 j
b1 G
b1 g
b1 k
b1001 i
b111011 X
b100 [
b10001001000011111111111111011 I
b10001001000011111111111111011 d
b101 W
b101 `
1A
#590000
b1100 C
b1100 n
b1001 D
b1001 m
b100 U
b100 e
0J
b1100 S
b1100 _
b1100 h
b10 V
b10 Z
b10 f
b10 T
b10 Y
b10 \
0Q
1K
1L
b100100000100000 E
b100 F
b100 ^
b100 l
b100 j
b1000 G
b1000 g
b1000 k
b1000 i
b100000 X
b0 [
b1000001000100100000100000 I
b1000001000100100000100000 d
b0 W
b0 `
0A
#600000
b10000 C
b10000 n
b1001 D
b1001 m
b101 U
b101 e
b10000 S
b10000 _
b10000 h
b0 T
b0 Y
b0 \
1N
0K
1R
0L
b101 E
b1 F
b1 ^
b1 l
b1001 j
b1011 G
b1011 g
b1011 k
b1011 i
b101 X
b101011 [
b10101101011010010000000000000101 I
b10101101011010010000000000000101 d
b1 W
b1 `
1A
#610000
0A
#620000
b1 H
b1 ]
b1 C
b1 n
b10010 D
b10010 m
0N
1O
1K
1M
b10010 j
b100011 [
b10001101011100100000000000000101 I
b10001101011100100000000000000101 d
b10 W
b10 `
1A
#630000
b1 3
0A
#640000
bx H
bx ]
b1001 D
b1001 m
b10011 U
b10011 e
0J
b1 S
b1 _
b1 h
b111 V
b111 Z
b111 f
b10 T
b10 Y
b10 \
0O
0M
0R
1L
b100100000101010 E
b10011 F
b10011 ^
b10011 l
b10011 j
b1000 G
b1000 g
b1000 k
b1000 i
b101010 X
b0 [
b1000100110100100000101010 I
b1000100110100100000101010 d
b11 W
b11 `
1A
#650000
b1 *
0A
#660000
b10110 C
b10110 n
b10000 D
b10000 m
b1 U
b1 e
b10110 S
b10110 _
b10110 h
b10 V
b10 Z
b10 f
b0 T
b0 Y
b0 \
1R
0L
b1 E
b10101 F
b10101 ^
b10101 l
b10000 j
b10101 G
b10101 g
b10101 k
b10000 i
b1 X
b1000 [
b100010000100000000000000000001 I
b100010000100000000000000000001 d
b100 W
b100 `
1A
#670000
b10111 C
b10111 n
b10111 S
b10111 _
b10111 h
b10110 1
b10110 G
b10110 g
b10110 k
b10110 F
b10110 ^
b10110 l
0A
#680000
b0 C
b0 n
b1 D
b1 m
b1 U
b1 e
1J
b0 S
b0 _
b0 h
b110 V
b110 Z
b110 f
b1 T
b1 Y
b1 \
1Q
0K
0R
b11111111111111111111111111111011 E
b1 F
b1 ^
b1 l
b1 j
b1 G
b1 g
b1 k
b1001 i
b111011 X
b100 [
b10001001000011111111111111011 I
b10001001000011111111111111011 d
b101 W
b101 `
1A
#690000
b1100 C
b1100 n
b1001 D
b1001 m
b100 U
b100 e
0J
b1100 S
b1100 _
b1100 h
b10 V
b10 Z
b10 f
b10 T
b10 Y
b10 \
0Q
1K
1L
b100100000100000 E
b100 F
b100 ^
b100 l
b100 j
b1000 G
b1000 g
b1000 k
b1000 i
b100000 X
b0 [
b1000001000100100000100000 I
b1000001000100100000100000 d
b0 W
b0 `
0A
#700000
b10000 C
b10000 n
b1001 D
b1001 m
b101 U
b101 e
b10000 S
b10000 _
b10000 h
b0 T
b0 Y
b0 \
1N
0K
1R
0L
b101 E
b1 F
b1 ^
b1 l
b1001 j
b1011 G
b1011 g
b1011 k
b1011 i
b101 X
b101011 [
b10101101011010010000000000000101 I
b10101101011010010000000000000101 d
b1 W
b1 `
1A
#710000
0A
#720000
b1 H
b1 ]
b1 C
b1 n
b10010 D
b10010 m
0N
1O
1K
1M
b10010 j
b100011 [
b10001101011100100000000000000101 I
b10001101011100100000000000000101 d
b10 W
b10 `
1A
#730000
b1 3
0A
#740000
bx H
bx ]
b1001 D
b1001 m
b10011 U
b10011 e
0J
b1 S
b1 _
b1 h
b111 V
b111 Z
b111 f
b10 T
b10 Y
b10 \
0O
0M
0R
1L
b100100000101010 E
b10011 F
b10011 ^
b10011 l
b10011 j
b1000 G
b1000 g
b1000 k
b1000 i
b101010 X
b0 [
b1000100110100100000101010 I
b1000100110100100000101010 d
b11 W
b11 `
1A
#750000
b1 *
0A
#760000
b10111 C
b10111 n
b10000 D
b10000 m
b1 U
b1 e
b10111 S
b10111 _
b10111 h
b10 V
b10 Z
b10 f
b0 T
b0 Y
b0 \
1R
0L
b1 E
b10110 F
b10110 ^
b10110 l
b10000 j
b10110 G
b10110 g
b10110 k
b10000 i
b1 X
b1000 [
b100010000100000000000000000001 I
b100010000100000000000000000001 d
b100 W
b100 `
1A
#770000
b11000 C
b11000 n
b11000 S
b11000 _
b11000 h
b10111 1
b10111 G
b10111 g
b10111 k
b10111 F
b10111 ^
b10111 l
0A
#780000
b0 C
b0 n
b1 D
b1 m
b1 U
b1 e
1J
b0 S
b0 _
b0 h
b110 V
b110 Z
b110 f
b1 T
b1 Y
b1 \
1Q
0K
0R
b11111111111111111111111111111011 E
b1 F
b1 ^
b1 l
b1 j
b1 G
b1 g
b1 k
b1001 i
b111011 X
b100 [
b10001001000011111111111111011 I
b10001001000011111111111111011 d
b101 W
b101 `
1A
#790000
b1100 C
b1100 n
b1001 D
b1001 m
b100 U
b100 e
0J
b1100 S
b1100 _
b1100 h
b10 V
b10 Z
b10 f
b10 T
b10 Y
b10 \
0Q
1K
1L
b100100000100000 E
b100 F
b100 ^
b100 l
b100 j
b1000 G
b1000 g
b1000 k
b1000 i
b100000 X
b0 [
b1000001000100100000100000 I
b1000001000100100000100000 d
b0 W
b0 `
0A
#800000
b10000 C
b10000 n
b1001 D
b1001 m
b101 U
b101 e
b10000 S
b10000 _
b10000 h
b0 T
b0 Y
b0 \
1N
0K
1R
0L
b101 E
b1 F
b1 ^
b1 l
b1001 j
b1011 G
b1011 g
b1011 k
b1011 i
b101 X
b101011 [
b10101101011010010000000000000101 I
b10101101011010010000000000000101 d
b1 W
b1 `
1A
#810000
0A
#820000
b1 H
b1 ]
b1 C
b1 n
b10010 D
b10010 m
0N
1O
1K
1M
b10010 j
b100011 [
b10001101011100100000000000000101 I
b10001101011100100000000000000101 d
b10 W
b10 `
1A
#830000
b1 3
0A
#840000
bx H
bx ]
b1001 D
b1001 m
b10011 U
b10011 e
0J
b1 S
b1 _
b1 h
b111 V
b111 Z
b111 f
b10 T
b10 Y
b10 \
0O
0M
0R
1L
b100100000101010 E
b10011 F
b10011 ^
b10011 l
b10011 j
b1000 G
b1000 g
b1000 k
b1000 i
b101010 X
b0 [
b1000100110100100000101010 I
b1000100110100100000101010 d
b11 W
b11 `
1A
#850000
b1 *
0A
#860000
b11000 C
b11000 n
b10000 D
b10000 m
b1 U
b1 e
b11000 S
b11000 _
b11000 h
b10 V
b10 Z
b10 f
b0 T
b0 Y
b0 \
1R
0L
b1 E
b10111 F
b10111 ^
b10111 l
b10000 j
b10111 G
b10111 g
b10111 k
b10000 i
b1 X
b1000 [
b100010000100000000000000000001 I
b100010000100000000000000000001 d
b100 W
b100 `
1A
#870000
b11001 C
b11001 n
b11001 S
b11001 _
b11001 h
b11000 1
b11000 G
b11000 g
b11000 k
b11000 F
b11000 ^
b11000 l
0A
#880000
b0 C
b0 n
b1 D
b1 m
b1 U
b1 e
1J
b0 S
b0 _
b0 h
b110 V
b110 Z
b110 f
b1 T
b1 Y
b1 \
1Q
0K
0R
b11111111111111111111111111111011 E
b1 F
b1 ^
b1 l
b1 j
b1 G
b1 g
b1 k
b1001 i
b111011 X
b100 [
b10001001000011111111111111011 I
b10001001000011111111111111011 d
b101 W
b101 `
1A
#890000
b1100 C
b1100 n
b1001 D
b1001 m
b100 U
b100 e
0J
b1100 S
b1100 _
b1100 h
b10 V
b10 Z
b10 f
b10 T
b10 Y
b10 \
0Q
1K
1L
b100100000100000 E
b100 F
b100 ^
b100 l
b100 j
b1000 G
b1000 g
b1000 k
b1000 i
b100000 X
b0 [
b1000001000100100000100000 I
b1000001000100100000100000 d
b0 W
b0 `
0A
#900000
b10000 C
b10000 n
b1001 D
b1001 m
b101 U
b101 e
b10000 S
b10000 _
b10000 h
b0 T
b0 Y
b0 \
1N
0K
1R
0L
b101 E
b1 F
b1 ^
b1 l
b1001 j
b1011 G
b1011 g
b1011 k
b1011 i
b101 X
b101011 [
b10101101011010010000000000000101 I
b10101101011010010000000000000101 d
b1 W
b1 `
1A
#910000
0A
#920000
b1 H
b1 ]
b1 C
b1 n
b10010 D
b10010 m
0N
1O
1K
1M
b10010 j
b100011 [
b10001101011100100000000000000101 I
b10001101011100100000000000000101 d
b10 W
b10 `
1A
#930000
b1 3
0A
#940000
bx H
bx ]
b1001 D
b1001 m
b10011 U
b10011 e
0J
b1 S
b1 _
b1 h
b111 V
b111 Z
b111 f
b10 T
b10 Y
b10 \
0O
0M
0R
1L
b100100000101010 E
b10011 F
b10011 ^
b10011 l
b10011 j
b1000 G
b1000 g
b1000 k
b1000 i
b101010 X
b0 [
b1000100110100100000101010 I
b1000100110100100000101010 d
b11 W
b11 `
1A
#950000
b1 *
0A
